Titanic: Quins factors van determinar la supervivència dels passatgers?
…
Ens trobem amb 20 casos, que impliquen les cobertes de la B a la F.

Per tant, en els passatgers d’aquestes cabines, els hi sumarem +1 a FamSize:

dades <- dades %>%
  mutate(FamSize = ifelse(Cabin %in% df_passengers_cabin$Cabin, FamSize+1, FamSize)) 

Comprovem ara que cap d’aquests passatgers té FamSize = 0:

dades %>% 
  filter(Cabin %in% df_passengers_cabin$Cabin) %>%
  select(FamilyName, Title, Name, Cabin, FamSize)

## # A tibble: 46 x 5
##    FamilyName Title Name                             Cabin FamSize
##    <chr>      <chr> <chr>                            <chr>   <dbl>
##  1 McCarthy   Mr    Timothy J                        E46         1
##  2 Woolner    Mr    Hugh                             C52         1
##  3 Icard      Miss  Amelie                           B28         1
##  4 Nye        Mrs   (Elizabeth Ramell)               F33         1
##  5 Webber     Miss  Susan                            E101        1
##  6 Bazzani    Miss  Albina                           D15         1
##  7 Cherry     Miss  Gladys                           B77         1
##  8 Graham     Mrs   William Thompson (Edith Junkins) C125        2
##  9 Levy       Mr    Rene Jacques                     D           1
## 10 Saalfeld   Mr    Adolphe                          C106        1
## # ... with 36 more rows
…
# Per quants passatgers el FamSize és inferior al numero de persones amb el mateix num de Tiquet?
nrow(df_tiquet_famsize %>% filter(n_Ticket < FamSize))

## [1] 108

# Per quants passatgers el FamSize és superior al numero de persones amb el mateix num de Tiquet?
nrow(df_tiquet_famsize %>% filter(n_Ticket > FamSize))

## [1] 188

Per la gran majoria de persones, el FamSize coincideix amb el número de tiquet. Per contra, en tenim uns 300 pels quals no coincideix.

df_tiquet_famsize %>% filter(n_Ticket < FamSize)

## # A tibble: 108 x 3
## # Groups:   Ticket [97]
##    Ticket     n_Ticket FamSize
##    <chr>         <dbl>   <dbl>
##  1 A/5 21171         0       1
##  2 345764            1       2
##  3 7546              0       1
##  4 19947             0       1
##  5 C.A. 29395        0       1
##  6 3101281           0       6
##  7 315151            0       2
##  8 3101278           1       3
##  9 3101276           0       2
## 10 4136              0       1
## # ... with 98 more rows
…
## # A tibble: 1 x 20
##   PassengerId Survived Pclass FamilyName Title Name  Sex     Age SibSp Parch
##         <int> <fct>    <fct>  <chr>      <chr> <chr> <fct> <dbl> <int> <int>
## 1        1044 <NA>     3      Storey     Mr    Thom~ male   60.5     0     0
## # ... with 10 more variables: Ticket <chr>, TicketPfx <chr>, TicketNr <dbl>,
## #   Fare <dbl>, Cabin <chr>, Embarked <chr>, Dataset <chr>, Age_disc <fct>,
## #   FamSize <dbl>, Deck <chr>

Es l’únic passatger amb aquest codi de tiquet. Veiem que es tracta d’un home de 3a classe, que viatjava sol, i d’edat avançada (per aquella època), i que va embarcar a Southampton.

Observem que aquells registres amb un mateix Ticket, també tenen tots el mateix Fare. Així és d’esperar, ja que Fare correspon al total pagat per cada tiquet (encara que inclogui múltiples persones).

dades %>% group_by(Ticket) %>% summarise(nFare = n_distinct(Fare)) %>% arrange(desc(nFare))

## # A tibble: 929 x 2
##    Ticket nFare
##    <chr>  <int>
##  1 7534       2
##  2 110152     1
##  3 110413     1
##  4 110465     1
##  5 110469     1
##  6 110489     1
##  7 110564     1
##  8 110813     1
##  9 111163     1
## 10 111240     1
## # ... with 919 more rows

Tenim només una excepció, el ticket 7534. Però en ser un únic cas entre els 929 tickets que hi ha a les dades, ho considerarem com un error. Per arreglar-ho, recalculem Fare com la mitjana dels dos valors:

dades <- dades %>%
  group_by(Ticket) %>%
  mutate(Fare = mean(Fare, na.rm=T)) %>%
  ungroup()

dades %>% group_by(Ticket) %>% summarise(nFare = n_distinct(Fare)) %>% arrange(desc(nFare))

## # A tibble: 929 x 2
##    Ticket nFare
##    <chr>  <int>
##  1 110152     1
##  2 110413     1
##  3 110465     1
##  4 110469     1
##  5 110489     1
##  6 110564     1
##  7 110813     1
##  8 111163     1
##  9 111240     1
## 10 111320     1
## # ... with 919 more rows
…
Com que l’edat pot estar relacionada alhora amb diverses variables, fem una imputació multidimensional mitjançant kNN.

dadeskNNImp <- VIM::kNN(
    data = dades %>% select(Age_disc, Pclass, Title, Sex, SibSp, Parch, Cabin),
    # Variables que necessitem imputar
    variable = c("Age_disc"),
    # Utilitzem els 3 veïns més propers
    k = 20
)

# Visualitzem els primers registres imputats
dadeskNNImp %>% filter(Age_disc_imp) %>% as_tibble()

## # A tibble: 263 x 9
##    Ticket   Age_disc Pclass Title Sex    SibSp Parch Cabin Age_disc_imp
##    <chr>    <fct>    <fct>  <chr> <fct>  <int> <int> <chr> <lgl>       
##  1 330877   (20,25]  3      Mr    male       0     0 <NA>  TRUE        
##  2 244373   (15,20]  2      Mr    male       0     0 <NA>  TRUE        
##  3 2649     (20,25]  3      Mrs   female     0     0 <NA>  TRUE        
##  4 2631     (20,25]  3      Mr    male       0     0 <NA>  TRUE        
##  5 330959   (20,25]  3      Miss  female     0     0 <NA>  TRUE        
##  6 349216   (20,25]  3      Mr    male       0     0 <NA>  TRUE        
##  7 PC 17569 (45,50]  1      Mrs   female     1     0 B78   TRUE        
##  8 335677   (20,25]  3      Miss  female     0     0 <NA>  TRUE        
##  9 2677     (20,25]  3      Mr    male       0     0 <NA>  TRUE        
## 10 349253   (20,25]  3      Mr    male       0     0 <NA>  TRUE        
## # ... with 253 more rows
…
